out.txt
VCD info: dumpfile output.vcd opened for output.
Starting simulation
Simulation ended.
                   0,	0,	0,	   0192
                   5,	1,	0,	   0192
                  10,	0,	1,	   0192
                  15,	1,	1,	   0192
                  20,	0,	1,	   0249
                  25,	1,	1,	   0249
                  30,	0,	1,	   0249
                  35,	1,	1,	   0249
                  40,	0,	1,	   0176
                  45,	1,	1,	   0176
                  50,	0,	1,	   4176
                  55,	1,	1,	   4176
                  60,	0,	1,	 903249
                  65,	1,	1,	 903249
                  70,	0,	1,	   0192
                  75,	1,	1,	   0192
                  80,	0,	1,	   0192
                  85,	1,	1,	   0192
                  90,	0,	1,	   6176
                  95,	1,	1,	   6176
                 100,	0,	1,	   6176
                 105,	1,	1,	   6176
                 110,	0,	1,	   6176
                 115,	1,	1,	   6176
                 120,	0,	1,	   6176
                 125,	1,	1,	   6176
                 130,	0,	1,	   6176
                 135,	1,	1,	   6176
                 140,	0,	1,	   6176
                 145,	1,	1,	   6176
                 150,	0,	1,	   6176
                 155,	1,	1,	   6176
                 160,	0,	1,	   6176
                 165,	1,	1,	   6176
                 170,	0,	1,	   6176
                 175,	1,	1,	   6176
                 180,	0,	1,	   6176
                 185,	1,	1,	   6176
                 190,	0,	1,	   6176
                 195,	1,	1,	   6176
                 200,	0,	1,	   6176
                 205,	1,	1,	   6176
                 210,	0,	1,	   6176
                 215,	1,	1,	   6176
                 220,	0,	1,	   6176
                 225,	1,	1,	   6176
                 230,	0,	1,	   6176
                 235,	1,	1,	   6176
                 240,	0,	1,	   6176
                 245,	1,	1,	   6176
                 250,	0,	1,	   6176
                 255,	1,	1,	   6176
                 260,	0,	1,	   6176
                 265,	1,	1,	   6176
                 270,	0,	1,	   6176
                 275,	1,	1,	   6176
                 280,	0,	1,	   6176
                 285,	1,	1,	   6176
                 290,	0,	1,	   6176
                 295,	1,	1,	   6176
                 300,	0,	1,	   6176
                 305,	1,	1,	   6176
                 310,	0,	1,	   6176
                 315,	1,	1,	   6176
                 320,	0,	1,	   6176
                 325,	1,	1,	   6176
                 330,	0,	1,	   6176
                 335,	1,	1,	   6176
                 340,	0,	1,	   6176
                 345,	1,	1,	   6176
                 350,	0,	1,	   6176
                 355,	1,	1,	   6176
                 360,	0,	1,	   6176
                 365,	1,	1,	   6176
                 370,	0,	1,	   6176
                 375,	1,	1,	   6176
                 380,	0,	1,	   6176
                 385,	1,	1,	   6176
                 390,	0,	1,	   6176
                 395,	1,	1,	   6176
                 400,	0,	1,	   6176
                 405,	1,	1,	   6176
                 410,	0,	1,	   6176
                 415,	1,	1,	   6176
                 420,	0,	1,	   6176
                 425,	1,	1,	   6176
                 430,	0,	1,	   6176
                 435,	1,	1,	   6176
                 440,	0,	1,	   6176
                 445,	1,	1,	   6176
                 450,	0,	1,	   6176
                 455,	1,	1,	   6176
                 460,	0,	1,	   6176
                 465,	1,	1,	   6176
                 470,	0,	1,	   6176
                 475,	1,	1,	   6176
                 480,	0,	1,	   6176
                 485,	1,	1,	   6176
                 490,	0,	1,	   6176
                 495,	1,	1,	   6176
                 500,	0,	1,	   6176
                 505,	1,	1,	   6176
                 510,	0,	1,	   6176
                 515,	1,	1,	   6176
                 520,	0,	1,	   6176
                 525,	1,	1,	   6176
                 530,	0,	1,	   6176
                 535,	1,	1,	   6176
                 540,	0,	1,	   6176
                 545,	1,	1,	   6176
                 550,	0,	1,	   6176
                 555,	1,	1,	   6176
                 560,	0,	1,	   6176
                 565,	1,	1,	   6176
                 570,	0,	1,	   6176
                 575,	1,	1,	   6176
                 580,	0,	1,	   6176
                 585,	1,	1,	   6176
                 590,	0,	1,	   6176
                 595,	1,	1,	   6176
                 600,	0,	1,	   6176
                 605,	1,	1,	   6176
                 610,	0,	1,	   6176
                 615,	1,	1,	   6176
                 620,	0,	1,	   6176
                 625,	1,	1,	   6176
                 630,	0,	1,	   6176
                 635,	1,	1,	   6176
                 640,	0,	1,	   6176
                 645,	1,	1,	   6176
                 650,	0,	1,	   6176
                 655,	1,	1,	   6176
                 660,	0,	1,	   6176
                 665,	1,	1,	   6176
                 670,	0,	1,	   6176
                 675,	1,	1,	   6176
                 680,	0,	1,	   6176
                 685,	1,	1,	   6176
                 690,	0,	1,	   6176
                 695,	1,	1,	   6176
                 700,	0,	1,	   6176
                 705,	1,	1,	   6176
                 710,	0,	1,	   6176
                 715,	1,	1,	   6176
                 720,	0,	1,	   6176
                 725,	1,	1,	   6176
                 730,	0,	1,	   6176
                 735,	1,	1,	   6176
                 740,	0,	1,	   6176
                 745,	1,	1,	   6176
                 750,	0,	1,	   6176
                 755,	1,	1,	   6176
                 760,	0,	1,	   6176
                 765,	1,	1,	   6176
                 770,	0,	1,	   6176
                 775,	1,	1,	   6176
                 780,	0,	1,	   6176
                 785,	1,	1,	   6176
                 790,	0,	1,	   6176
                 795,	1,	1,	   6176
                 800,	0,	1,	   6176
                 805,	1,	1,	   6176
                 810,	0,	1,	   6176
                 815,	1,	1,	   6176
                 820,	0,	1,	   6176
                 825,	1,	1,	   6176
                 830,	0,	1,	   6176
                 835,	1,	1,	   6176
                 840,	0,	1,	   6176
                 845,	1,	1,	   6176
                 850,	0,	1,	   6176
                 855,	1,	1,	   6176
                 860,	0,	1,	   6176
                 865,	1,	1,	   6176
                 870,	0,	1,	   6176
                 875,	1,	1,	   6176
                 880,	0,	1,	   6176
                 885,	1,	1,	   6176
                 890,	0,	1,	   6176
                 895,	1,	1,	   6176
                 900,	0,	1,	   6176
                 905,	1,	1,	   6176
                 910,	0,	1,	   6176
                 915,	1,	1,	   6176
                 920,	0,	1,	   6176
                 925,	1,	1,	   6176
                 930,	0,	1,	   6176
                 935,	1,	1,	   6176
                 940,	0,	1,	   6176
                 945,	1,	1,	   6176
                 950,	0,	1,	   6176
                 955,	1,	1,	   6176
                 960,	0,	1,	   6176
                 965,	1,	1,	   6176
                 970,	0,	1,	   6176
                 975,	1,	1,	   6176
                 980,	0,	1,	   6176
                 985,	1,	1,	   6176
                 990,	0,	1,	   6176
                 995,	1,	1,	   6176
                1000,	0,	1,	   6176
                1005,	1,	1,	   6176
                1010,	0,	1,	   6176
                1015,	1,	1,	   6176
                1020,	0,	1,	   6176
                1025,	1,	1,	   6176
                1030,	0,	1,	   6176
                1035,	1,	1,	   6176
                1040,	0,	1,	   6176
                1045,	1,	1,	   6176
                1050,	0,	1,	   6176
                1055,	1,	1,	   6176
                1060,	0,	1,	   6176
                1065,	1,	1,	   6176
                1070,	0,	1,	   6176
                1075,	1,	1,	   6176
                1080,	0,	1,	   6176
                1085,	1,	1,	   6176
                1090,	0,	1,	   6176
                1095,	1,	1,	   6176
                1100,	0,	1,	   6176
                1105,	1,	1,	   6176
                1110,	0,	1,	   6176
                1115,	1,	1,	   6176
                1120,	0,	1,	   6176
                1125,	1,	1,	   6176
                1130,	0,	1,	   6176
                1135,	1,	1,	   6176
                1140,	0,	1,	   6176
                1145,	1,	1,	   6176
                1150,	0,	1,	   6176
                1155,	1,	1,	   6176
                1160,	0,	1,	   6176
                1165,	1,	1,	   6176
                1170,	0,	1,	   6176
                1175,	1,	1,	   6176
                1180,	0,	1,	   6176
                1185,	1,	1,	   6176
                1190,	0,	1,	   6176
                1195,	1,	1,	   6176
                1200,	0,	1,	   6176
                1205,	1,	1,	   6176
                1210,	0,	1,	   6176
                1215,	1,	1,	   6176
                1220,	0,	1,	   6176
                1225,	1,	1,	   6176
                1230,	0,	1,	   6176
                1235,	1,	1,	   6176
                1240,	0,	1,	   6176
                1245,	1,	1,	   6176
                1250,	0,	1,	   6176
                1255,	1,	1,	   6176
                1260,	0,	1,	   6176
                1265,	1,	1,	   6176
                1270,	0,	1,	   6176
                1275,	1,	1,	   6176
                1280,	0,	1,	   6176
                1285,	1,	1,	   6176
                1290,	0,	1,	   6176
                1295,	1,	1,	   6176
                1300,	0,	1,	   6176
